{
  "query": "Beach FL",
  "iso2": null,
  "currentPage": 1,
  "itemsPerPage": 10,
  "pages": 6,
  "count": 52,
  "orderBy": "ranker DESC",
  "lat": null,
  "lon": null,
  "radius": 20,
  "type": "name",
  "results": [
    {
      "name": "West Palm Beach",
      "iso2": "US",
      "country": "United States",
      "admin1": "Florida",
      "lat": 26.7153,
      "lon": -80.0534,
      "asl": 4,
      "timezone": "America/New_York",
      "population": 120932,
      "distance": 3157.107,
      "icao": "",
      "iata": "PBI",
      "postcodes": [
        "33401",
        "33402",
        "33404",
        "33405",
        "33406",
        "33407",
        "33409",
        "33412",
        "33415",
        "33416",
        "33417",
        "33419",
        "33420",
        "33422",
        "33480",
        "33403",
        "33411",
        "33413"
      ],
      "featureClass": "P",
      "featureCode": "PPLA2",
      "url": "west-palm-beach_united-states_4177887",
      "id": 4177887
    },
    {
      "name": "Flagler Beach",
      "iso2": "US",
      "country": "United States",
      "admin1": "Florida",
      "lat": 29.475,
      "lon": -81.127,
      "asl": 3,
      "timezone": "America/New_York",
      "population": 4869,
      "distance": 2957.2708,
      "icao": "",
      "iata": "",
      "postcodes": [
        "32136"
      ],
      "featureClass": "P",
      "featureCode": "PPL",
      "url": "flagler-beach_united-states_4155533",
      "id": 4155533
    },
    {
      "name": "Delray Beach",
      "iso2": "US",
      "country": "United States",
      "admin1": "Florida",
      "lat": 26.4615,
      "lon": -80.0728,
      "asl": 5,
      "timezone": "America/New_York",
      "population": 66255,
      "distance": 3165.7554,
      "icao": "",
      "iata": "",
      "postcodes": [
        "33444",
        "33445",
        "33446",
        "33448",
        "33482",
        "33483",
        "33484"
      ],
      "featureClass": "P",
      "featureCode": "PPL",
      "url": "delray-beach_united-states_4153132",
      "id": 4153132
    },
    {
      "name": "Miami Beach",
      "iso2": "US",
      "country": "United States",
      "admin1": "Florida",
      "lat": 25.7906,
      "lon": -80.1301,
      "asl": 1,
      "timezone": "America/New_York",
      "population": 92312,
      "distance": 3189.0425,
      "icao": "",
      "iata": "",
      "postcodes": [
        "33109",
        "33119",
        "33139",
        "33140",
        "33141",
        "33154",
        "33239"
      ],
      "featureClass": "P",
      "featureCode": "PPL",
      "url": "miami-beach_united-states_4164143",
      "id": 4164143
    },
    {
      "name": "Daytona Beach",
      "iso2": "US",
      "country": "United States",
      "admin1": "Florida",
      "lat": 29.2108,
      "lon": -81.0228,
      "asl": 4,
      "timezone": "America/New_York",
      "population": 72647,
      "distance": 2975.4387,
      "icao": "",
      "iata": "DAB",
      "postcodes": [
        "32114",
        "32115",
        "32117",
        "32118",
        "32119",
        "32120",
        "32121",
        "32122",
        "32125",
        "32126",
        "32198",
        "32116",
        "32124"
      ],
      "featureClass": "P",
      "featureCode": "PPL",
      "url": "daytona-beach_united-states_4152872",
      "id": 4152872
    },
    {
      "name": "North Miami Beach",
      "iso2": "US",
      "country": "United States",
      "admin1": "Florida",
      "lat": 25.9331,
      "lon": -80.1626,
      "asl": 3,
      "timezone": "America/New_York",
      "population": 43971,
      "distance": 3179.865,
      "icao": "",
      "iata": "",
      "postcodes": [
        "33160"
      ],
      "featureClass": "P",
      "featureCode": "PPL",
      "url": "north-miami-beach_united-states_4166233",
      "id": 4166233
    },
    {
      "name": "Surfside Beach",
      "iso2": "US",
      "country": "United States",
      "admin1": "South Carolina",
      "lat": 33.606,
      "lon": -78.9731,
      "asl": 3,
      "timezone": "America/New_York",
      "population": 4280,
      "distance": 3055.0076,
      "icao": "",
      "iata": "",
      "postcodes": [
        ""
      ],
      "featureClass": "P",
      "featureCode": "PPL",
      "url": "surfside-beach_united-states_4598052",
      "id": 4598052
    },
    {
      "name": "Apollo Beach",
      "iso2": "US",
      "country": "United States",
      "admin1": "Florida",
      "lat": 27.7731,
      "lon": -82.4076,
      "asl": 1,
      "timezone": "America/New_York",
      "population": 14055,
      "distance": 2897.82,
      "icao": "",
      "iata": "",
      "postcodes": [
        "33572"
      ],
      "featureClass": "P",
      "featureCode": "PPL",
      "url": "apollo-beach_united-states_4146161",
      "id": 4146161
    },
    {
      "name": "Atlantic Beach",
      "iso2": "US",
      "country": "United States",
      "admin1": "Florida",
      "lat": 30.3344,
      "lon": -81.3987,
      "asl": 3,
      "timezone": "America/New_York",
      "population": 13193,
      "distance": 2906.1204,
      "icao": "",
      "iata": "",
      "postcodes": [
        "32233"
      ],
      "featureClass": "P",
      "featureCode": "PPL",
      "url": "atlantic-beach_united-states_4146354",
      "id": 4146354
    },
    {
      "name": "Panama City Beach",
      "iso2": "US",
      "country": "United States",
      "admin1": "Florida",
      "lat": 30.1766,
      "lon": -85.8055,
      "asl": 3,
      "timezone": "America/Chicago",
      "population": 12624,
      "distance": 2501.8562,
      "icao": "",
      "iata": "",
      "postcodes": [
        "32407",
        "32413"
      ],
      "featureClass": "P",
      "featureCode": "PPL",
      "url": "panama-city-beach_united-states_4167695",
      "id": 4167695
    }
  ]
}